<?xml version="1.0" encoding="UTF-8"?>
<!DOCTYPE suite SYSTEM "http://testng.org/testng-1.0.dtd">
<suite guice-stage="DEVELOPMENT" verbose="0" name="Failed suite [Practice Suite]">
  <test thread-count="5" verbose="0" name="Test 2(failed)">
    <classes>
      <class name="com.ait.tests.ArqTest">
        <methods>
          <include name="givenWord_WhenUppercase_ThenLowercase"/>
        </methods>
      </class> <!-- com.ait.tests.ArqTest -->
    </classes>
  </test> <!-- Test 2(failed) -->
</suite> <!-- Failed suite [Practice Suite] -->
