C:\Users\User\eclipse-workspace-ee\pipeline-demo\src\test\java\com\ait\tests\SeleniumTestRunner.java
C:\Users\User\eclipse-workspace-ee\pipeline-demo\src\test\java\com\ait\tests\AppTest.java
C:\Users\User\eclipse-workspace-ee\pipeline-demo\src\test\java\com\ait\tests\ArqTest.java
C:\Users\User\eclipse-workspace-ee\pipeline-demo\src\test\java\com\ait\tests\FailedLoginTest.java
C:\Users\User\eclipse-workspace-ee\pipeline-demo\src\test\java\com\ait\tests\Hooks.java
